Chapter 1: Manipulations
…
Data Science model: Artwork by @allison_horst

Get to know your data

flights#dataset we will use --> make sure you run library(nycflights13) before running this line of code

# A tibble: 15,000 × 19
    year month   day dep_time sched_dep_time dep_delay arr_time sched_arr_time
   <int> <int> <int>    <int>          <int>     <dbl>    <int>          <int>
 1  2013     1     4      819            820        -1     1103           1129
 2  2013    12     5     1238           1110        88     1342           1223
 3  2013     8    19     1953           1959        -6     2141           2146
 4  2013     4    14      608            610        -2      752            754
 5  2013     4    29     1653           1700        -7     1815           1835
 6  2013     4     5     1813           1729        44     2026           1937
 7  2013     1    17     1740           1745        -5     2054           2120
 8  2013     2    26      834            815        19     1031           1010
 9  2013     2    20     1014           1000        14     1219           1221
10  2013     3    22     1741           1736         5     2024           2029
# ℹ 14,990 more rows
# ℹ 11 more variables: arr_delay <dbl>, carrier <chr>, flight <int>,
#   tailnum <chr>, origin <chr>, dest <chr>, air_time <dbl>, distance <dbl>,
#   hour <dbl>, minute <dbl>, time_hour <dttm>
…
#flights in january with more than 60 minutes delay

#flights with departure or arrival delay smaller than 15 minutes

#flights with distance equal or bigger than 1010 miles

#flights operated by american airlines (AA)

NOTE

Be careful in using & and , as substitutes. In some cases they are but in other not. For example if you are looking for the flights in January with more than 60 minutes delay both in departure and arrival

filter(flights, month==1 & dep_delay> 60 & arr_delay>60)

# A tibble: 80 × 19
    year month   day dep_time sched_dep_time dep_delay arr_time sched_arr_time
   <int> <int> <int>    <int>          <int>     <dbl>    <int>          <int>
 1  2013     1    31     2029           1900        89     2151           2018
 2  2013     1    31     2051           1750       181     2217           1908
 3  2013     1    30     2322           2000       202      129           2224
 4  2013     1     2     2148           2004       104     2234           2112
 5  2013     1    25     2051           1910       101        8           2215
 6  2013     1    31     2130           2000        90     2235           2114
 7  2013     1    23      836            655       101     1049            927
 8  2013     1    23     1949           1745       124     2226           2020
 9  2013     1     4     1430           1240       110     1717           1540
10  2013     1    16     1741           1530       131     1933           1711
# ℹ 70 more rows
# ℹ 11 more variables: arr_delay <dbl>, carrier <chr>, flight <int>,
#   tailnum <chr>, origin <chr>, dest <chr>, air_time <dbl>, distance <dbl>,
#   hour <dbl>, minute <dbl>, time_hour <dttm>

this line is equivalent to the one below with ,.

filter(flights, month==1 , dep_delay> 60 , arr_delay>60)

# A tibble: 80 × 19
    year month   day dep_time sched_dep_time dep_delay arr_time sched_arr_time
   <int> <int> <int>    <int>          <int>     <dbl>    <int>          <int>
 1  2013     1    31     2029           1900        89     2151           2018
 2  2013     1    31     2051           1750       181     2217           1908
 3  2013     1    30     2322           2000       202      129           2224
 4  2013     1     2     2148           2004       104     2234           2112
 5  2013     1    25     2051           1910       101        8           2215
 6  2013     1    31     2130           2000        90     2235           2114
 7  2013     1    23      836            655       101     1049            927
 8  2013     1    23     1949           1745       124     2226           2020
 9  2013     1     4     1430           1240       110     1717           1540
10  2013     1    16     1741           1530       131     1933           1711
# ℹ 70 more rows
# ℹ 11 more variables: arr_delay <dbl>, carrier <chr>, flight <int>,
#   tailnum <chr>, origin <chr>, dest <chr>, air_time <dbl>, distance <dbl>,
#   hour <dbl>, minute <dbl>, time_hour <dttm>

In this case & and , are perfect substitutes but it is not always the case. Let’s check the example below:

filter(flights, month==1 & dep_delay> 60 |arr_delay>60)

# A tibble: 1,278 × 19
    year month   day dep_time sched_dep_time dep_delay arr_time sched_arr_time
   <int> <int> <int>    <int>          <int>     <dbl>    <int>          <int>
 1  2013    12     5     1238           1110        88     1342           1223
 2  2013    12    18     1704           1509       115     1933           1742
 3  2013     9    20     1506           1345        81     1635           1523
 4  2013     5    20     1105           1003        62     1314           1212
 5  2013     7     7      721            600        81      822            715
 6  2013     5     3     1413           1200       133     1554           1338
 7  2013     7    27     1432           1315        77     1614           1505
 8  2013     1    31     1934           1855        39     2333           2210
 9  2013    12    27     2315           2219        56      408            304
10  2013     7     2     2034           1930        64        5           2248
# ℹ 1,268 more rows
# ℹ 11 more variables: arr_delay <dbl>, carrier <chr>, flight <int>,
#   tailnum <chr>, origin <chr>, dest <chr>, air_time <dbl>, distance <dbl>,
#   hour <dbl>, minute <dbl>, time_hour <dttm>

filter(flights, month==1 , dep_delay> 60 |arr_delay>60)

# A tibble: 100 × 19
    year month   day dep_time sched_dep_time dep_delay arr_time sched_arr_time
   <int> <int> <int>    <int>          <int>     <dbl>    <int>          <int>
 1  2013     1    31     1934           1855        39     2333           2210
 2  2013     1    31     2029           1900        89     2151           2018
 3  2013     1    31     2051           1750       181     2217           1908
 4  2013     1    31     1040           1000        40     1419           1310
 5  2013     1    30     2322           2000       202      129           2224
 6  2013     1     2     2148           2004       104     2234           2112
 7  2013     1    25     2051           1910       101        8           2215
 8  2013     1    31     2130           2000        90     2235           2114
 9  2013     1    23      836            655       101     1049            927
10  2013     1    23     1949           1745       124     2226           2020
# ℹ 90 more rows
# ℹ 11 more variables: arr_delay <dbl>, carrier <chr>, flight <int>,
#   tailnum <chr>, origin <chr>, dest <chr>, air_time <dbl>, distance <dbl>,
#   hour <dbl>, minute <dbl>, time_hour <dttm>

In fact, the | is affecting the equivalency with the ,. So, if in your filter you have both a & and |, the & and the , are not equivalent.

To achieve equality in this case, you need parenthesis to divide the & and | conditions.

filter(flights, month==1 & (dep_delay> 60 |arr_delay>60))

# A tibble: 100 × 19
    year month   day dep_time sched_dep_time dep_delay arr_time sched_arr_time
   <int> <int> <int>    <int>          <int>     <dbl>    <int>          <int>
 1  2013     1    31     1934           1855        39     2333           2210
 2  2013     1    31     2029           1900        89     2151           2018
 3  2013     1    31     2051           1750       181     2217           1908
 4  2013     1    31     1040           1000        40     1419           1310
 5  2013     1    30     2322           2000       202      129           2224
 6  2013     1     2     2148           2004       104     2234           2112
 7  2013     1    25     2051           1910       101        8           2215
 8  2013     1    31     2130           2000        90     2235           2114
 9  2013     1    23      836            655       101     1049            927
10  2013     1    23     1949           1745       124     2226           2020
# ℹ 90 more rows
# ℹ 11 more variables: arr_delay <dbl>, carrier <chr>, flight <int>,
#   tailnum <chr>, origin <chr>, dest <chr>, air_time <dbl>, distance <dbl>,
#   hour <dbl>, minute <dbl>, time_hour <dttm>

Without the parenthesis you will get different & wrong results as above. So, please be careful and keep this in mind.

Arrange()

arrange() works similarly to filter() except that instead of selecting rows, it changes the order in which they are presented in the dataset. For example, using the above US tax payers dataset, you will use arrange if you want to sort the dataset by the tax payers last name in decreasing order (Z-A). –> arrange(tax_payers, desc(last_name)) Arrange takes a dataframe and a set of column names (or more complicated expressions) to order by. If you provide more than one column name, each additional column will be used to break ties in the values of preceding columns:

arrange(flights, year, month, day)

# A tibble: 15,000 × 19
    year month   day dep_time sched_dep_time dep_delay arr_time sched_arr_time
   <int> <int> <int>    <int>          <int>     <dbl>    <int>          <int>
 1  2013     1     1     1044           1041         3     1339           1350
 2  2013     1     1     1730           1730         0     2013           1959
 3  2013     1     1      723            725        -2     1013           1017
 4  2013     1     1      732            729         3     1041           1039
 5  2013     1     1      752            759        -7      955            959
 6  2013     1     1     1240           1229        11     1451           1428
 7  2013     1     1      600            600         0      851            858
 8  2013     1     1     1744           1720        24     2052           2025
 9  2013     1     1     1653           1700        -7     2005           2018
10  2013     1     1     1649           1639        10     1937           1911
# ℹ 14,990 more rows
# ℹ 11 more variables: arr_delay <dbl>, carrier <chr>, flight <int>,
#   tailnum <chr>, origin <chr>, dest <chr>, air_time <dbl>, distance <dbl>,
#   hour <dbl>, minute <dbl>, time_hour <dttm>
…
#flights by distance from smaller to bigger

#flights by air time

#flights with distance equal or bigger than 1010 miles

#flights by arr_delay from bigger to smaller

Select()

select() allows you to continue the analysis only on some specific columns of your original dataset. By using select you can rapidly zoom in on a useful subset of variables that you think needs deeper investigation or that are part of the scope of your analysis. For example, using the same imaginary US tax payer dataset, you want to focus your analysis on just salary, gender and age. It is unnecessary to keep all the other columns as you already know that they are not going to be included in the scope of the analysis –> select(tax_payers, salary, gender, age)

select(flights, year, month, day)#Select columns by name

# A tibble: 15,000 × 3
    year month   day
   <int> <int> <int>
 1  2013     1     4
 2  2013    12     5
 3  2013     8    19
 4  2013     4    14
 5  2013     4    29
 6  2013     4     5
 7  2013     1    17
 8  2013     2    26
 9  2013     2    20
10  2013     3    22
# ℹ 14,990 more rows

select(flights, year:day)#Select all columns between year and day (inclusive)

# A tibble: 15,000 × 3
    year month   day
   <int> <int> <int>
 1  2013     1     4
 2  2013    12     5
 3  2013     8    19
 4  2013     4    14
 5  2013     4    29
 6  2013     4     5
 7  2013     1    17
 8  2013     2    26
 9  2013     2    20
10  2013     3    22
# ℹ 14,990 more rows

select(flights, 1:3)#Select columns based on their position in the dataset (inclusive)

# A tibble: 15,000 × 3
    year month   day
   <int> <int> <int>
 1  2013     1     4
 2  2013    12     5
 3  2013     8    19
 4  2013     4    14
 5  2013     4    29
 6  2013     4     5
 7  2013     1    17
 8  2013     2    26
 9  2013     2    20
10  2013     3    22
# ℹ 14,990 more rows

select(flights, -(year:day))# Select all columns except those from year to day (inclusive)

# A tibble: 15,000 × 16
   dep_time sched_dep_time dep_delay arr_time sched_arr_time arr_delay carrier
      <int>          <int>     <dbl>    <int>          <int>     <dbl> <chr>  
 1      819            820        -1     1103           1129       -26 B6     
 2     1238           1110        88     1342           1223        79 EV     
 3     1953           1959        -6     2141           2146        -5 EV     
 4      608            610        -2      752            754        -2 EV     
 5     1653           1700        -7     1815           1835       -20 MQ     
 6     1813           1729        44     2026           1937        49 EV     
 7     1740           1745        -5     2054           2120       -26 AA     
 8      834            815        19     1031           1010        21 MQ     
 9     1014           1000        14     1219           1221        -2 EV     
10     1741           1736         5     2024           2029        -5 B6     
# ℹ 14,990 more rows
# ℹ 9 more variables: flight <int>, tailnum <chr>, origin <chr>, dest <chr>,
#   air_time <dbl>, distance <dbl>, hour <dbl>, minute <dbl>, time_hour <dttm>
…
# Example 1: compute the mean of the arrival delay column

# Example 2: find the max distance

summarise() is not terribly useful unless we pair it with group_by() or better it is pretty limited to summarise a single value per column. For example, imagine that you want to see how the average salary of tax payers change depending on their age. In this case, you need to first group_by your dataset using the age column and then compute the average salary. Thanks to the combination of group_by and summarise you will able to explore if the average salary of a 40 years old tax payer is on average higher/lower or equal to the ones of a 21 years old tax payer.

Summarise + group_by()

So, when you use the group_by() function you can change the unit of analysis from the complete dataset to individual groups (columns that caught your attention). group_by will create a group for each unique value available in the selected column.Then, when you use the dplyr verbs on a grouped dataframe they’ll be automatically applied “by group”. For example, if we applied exactly the same code to a dataframe grouped by date, we get the average delay per date:

by_day <- group_by(flights, year, month, day)
summarise(by_day, avg_delay_date = mean(dep_delay, na.rm = TRUE))#help in answer the question about how dates are affecting the delay

# A tibble: 365 × 4
# Groups:   year, month [12]
    year month   day avg_delay_date
   <int> <int> <int>          <dbl>
 1  2013     1     1         16.7  
 2  2013     1     2          6.53 
 3  2013     1     3         16.4  
 4  2013     1     4         22.5  
 5  2013     1     5          1.15 
 6  2013     1     6          4.42 
 7  2013     1     7          4.75 
 8  2013     1     8          3.49 
 9  2013     1     9          0.432
10  2013     1    10          0.396
# ℹ 355 more rows
…
#compute the max dep_delay

#compute the min air_time

#compute mean and standard deviation of the distance per each destination

#compute the max and min of air_time per each month

Data Inside R

#Running this code is the equivalent of simply running the name of the dataset you want to print. Meaning default printing will be applied
flights# but what if I want to print in console all columns?

# A tibble: 15,000 × 19
    year month   day dep_time sched_dep_time dep_delay arr_time sched_arr_time
   <int> <int> <int>    <int>          <int>     <dbl>    <int>          <int>
 1  2013     1     4      819            820        -1     1103           1129
 2  2013    12     5     1238           1110        88     1342           1223
 3  2013     8    19     1953           1959        -6     2141           2146
 4  2013     4    14      608            610        -2      752            754
 5  2013     4    29     1653           1700        -7     1815           1835
 6  2013     4     5     1813           1729        44     2026           1937
 7  2013     1    17     1740           1745        -5     2054           2120
 8  2013     2    26      834            815        19     1031           1010
 9  2013     2    20     1014           1000        14     1219           1221
10  2013     3    22     1741           1736         5     2024           2029
# ℹ 14,990 more rows
# ℹ 11 more variables: arr_delay <dbl>, carrier <chr>, flight <int>,
#   tailnum <chr>, origin <chr>, dest <chr>, air_time <dbl>, distance <dbl>,
#   hour <dbl>, minute <dbl>, time_hour <dttm>
…
# sort the flights by air_time from bigger to smaller

# keep all columns but those that contain the word "dep"

# compute a column named gain equal to the difference between departure delay and arrival delay

Missing values

Ok now it is time to provide an explanation on the na.rm argument that we used in the summarise function. Let’s try one more time in not using it. What happens if we don’t have it?

flights |> 
  group_by(year, month, day) |> 
  summarise(mean = mean(dep_delay))

# A tibble: 365 × 4
# Groups:   year, month [12]
    year month   day   mean
   <int> <int> <int>  <dbl>
 1  2013     1     1 16.7  
 2  2013     1     2 NA    
 3  2013     1     3 16.4  
 4  2013     1     4 22.5  
 5  2013     1     5  1.15 
 6  2013     1     6  4.42 
 7  2013     1     7  4.75 
 8  2013     1     8  3.49 
 9  2013     1     9  0.432
10  2013     1    10 NA    
# ℹ 355 more rows

We get a lot of missing values! That’s because aggregation functions obey the usual rule of missing values: if there’s any missing value in the input, the output will be a missing value. Fortunately, all aggregation functions have an na.rm argument which removes the missing values prior to computation:

flights |> 
  group_by(year, month, day) |> 
  summarise(mean = mean(dep_delay, na.rm = TRUE))

# A tibble: 365 × 4
# Groups:   year, month [12]
    year month   day   mean
   <int> <int> <int>  <dbl>
 1  2013     1     1 16.7  
 2  2013     1     2  6.53 
 3  2013     1     3 16.4  
 4  2013     1     4 22.5  
 5  2013     1     5  1.15 
 6  2013     1     6  4.42 
 7  2013     1     7  4.75 
 8  2013     1     8  3.49 
 9  2013     1     9  0.432
10  2013     1    10  0.396
# ℹ 355 more rows

In this case, missing values represent cancelled flights. So, we could also tackle the problem by first removing all the cancelled flights. By doing so we get rid of all missing values and so of the need of using the na.rm argument.

not_cancelled <- flights |> 
  filter(!is.na(dep_delay), !is.na(arr_delay))#save this dataset so we can reuse it in the future.

not_cancelled |> 
  group_by(year, month, day) |> 
  summarise(mean = mean(dep_delay))#no need of na.rm since we don't have NAs anymore

# A tibble: 365 × 4
# Groups:   year, month [12]
    year month   day   mean
   <int> <int> <int>  <dbl>
 1  2013     1     1 16.7  
 2  2013     1     2  6.53 
 3  2013     1     3 16.4  
 4  2013     1     4 22.5  
 5  2013     1     5  1.15 
 6  2013     1     6  4.42 
 7  2013     1     7  4.75 
 8  2013     1     8  3.49 
 9  2013     1     9  0.432
10  2013     1    10  0.396
# ℹ 355 more rows
…
